{
    "uuid": [
        {
            "value": "b53ac711-f66c-493b-be17-cf45092c38e4"
        }
    ],
    "bundle": [
        {
            "value": "menu_link_content"
        }
    ],
    "title": [
        {
            "value": "Comment",
            "lang": "fr"
        }
    ],
    "menu_name": [
        {
            "value": "main"
        }
    ],
    "link": [
        {
            "uri": "entity:node\/4",
            "title": "Comment",
            "options": []
        }
    ],
    "rediscover": [
        {
            "value": "0"
        }
    ],
    "weight": [
        {
            "value": "1"
        }
    ],
    "expanded": [
        {
            "value": "0"
        }
    ],
    "enabled": [
        {
            "value": "1"
        }
    ],
    "langcode": [
        {
            "value": "fr",
            "lang": "fr"
        }
    ],
    "default_langcode": [
        {
            "value": "2",
            "lang": "fr"
        }
    ]
}
