{
    "nid": [
        {
            "value": "1"
        }
    ],
    "vid": [
        {
            "value": "1"
        }
    ],
    "uuid": [
        {
            "value": "e7a857c3-8744-43f2-ab45-2093de04809a"
        }
    ],
    "type": [
        {
            "target_id": "page"
        }
    ],
    "langcode": [
        {
            "value": "fr",
            "lang": "fr"
        }
    ],
    "title": [
        {
            "value": "Politique de confidentialité",
            "lang": "fr"
        }
    ],
    "status": [
        {
            "value": "1",
            "lang": "fr"
        }
    ],
    "default_langcode": [
        {
            "value": "1",
            "lang": "fr"
        }
    ],
    "path": [
        {
            "alias": "\/privacy-policy",
            "langcode": "fr",
            "lang": "fr"
        }
    ],
    "body": [
        {
            "value": "<p>Vous devez ecrire votre politique de confidentialité.",
            "format": "full_html",
            "summary": "",
            "lang": "fr"
        }
    ]
}
